{"meta":{"total_pages":2,"current_page":2,"relics_count":3,"total_count":6},"relics":[{"id":71144,"nid_id":"705043","identification":"Zespół kościoła, obecnie kościół p.w. NMP Matki Kościoła","common_name":"","description":"","categories":["sakralny"],"state":"unchecked","register_number":"A-309 z 24.04.2007","dating_of_obj":"2 poł. XV","street":"ul. Nauczycielska","latitude":53.34113,"longitude":14.75055,"tags":[],"country_code":"PL","fprovince":null,"fplace":null,"documents_info":null,"links_info":null,"main_photo":{"id":null,"relic_id":null,"author":null,"date_taken":null,"alternate_text":null,"file":{"url":"/assets/fallback/photo_default.png","icon":{"url":"/assets/fallback/photo_icon_default.png"},"mini":{"url":"/assets/fallback/photo_mini_default.png"},"midi":{"url":"/assets/fallback/photo_midi_default.png"},"maxi":{"url":"/assets/fallback/photo_maxi_default.png"},"full":{"url":"/assets/fallback/photo_full_default.png"}},"file_full_width":null},"events":[],"entries":[],"links":[],"documents":[],"alerts":[],"descendants":[71146,71145],"photos":[],"place_id":94974,"place_name":"Szczecin","commune_name":"Szczecin","district_name":"Szczecin","voivodeship_name":"zachodniopomorskie"},{"id":75689,"nid_id":"749013","identification":"Zespół kościoła par. pw. Niepokalanego Serca Marii","common_name":"","description":"","categories":["sakralny"],"state":"unchecked","register_number":"","dating_of_obj":"","street":"ul. Kościelna","latitude":53.493723,"longitude":14.6034425,"tags":[],"country_code":"PL","fprovince":null,"fplace":null,"documents_info":null,"links_info":null,"main_photo":{"id":null,"relic_id":null,"author":null,"date_taken":null,"alternate_text":null,"file":{"url":"/assets/fallback/photo_default.png","icon":{"url":"/assets/fallback/photo_icon_default.png"},"mini":{"url":"/assets/fallback/photo_mini_default.png"},"midi":{"url":"/assets/fallback/photo_midi_default.png"},"maxi":{"url":"/assets/fallback/photo_maxi_default.png"},"full":{"url":"/assets/fallback/photo_full_default.png"}},"file_full_width":null},"events":[],"entries":[],"links":[],"documents":[],"alerts":[],"descendants":[75690,75693],"photos":[],"place_id":94974,"place_name":"Szczecin","commune_name":"Szczecin","district_name":"Szczecin","voivodeship_name":"zachodniopomorskie"},{"id":69342,"nid_id":"660203","identification":"Budynki z kompleksu d. fabryki Stoewera","common_name":"","description":"","categories":[],"state":"unchecked","register_number":"A-1296 z 06.10.1995","dating_of_obj":"","street":"ul. Krasińskiego 10-11","latitude":53.445869,"longitude":14.545044,"tags":[],"country_code":"PL","fprovince":null,"fplace":null,"documents_info":null,"links_info":null,"main_photo":{"id":null,"relic_id":null,"author":null,"date_taken":null,"alternate_text":null,"file":{"url":"/assets/fallback/photo_default.png","icon":{"url":"/assets/fallback/photo_icon_default.png"},"mini":{"url":"/assets/fallback/photo_mini_default.png"},"midi":{"url":"/assets/fallback/photo_midi_default.png"},"maxi":{"url":"/assets/fallback/photo_maxi_default.png"},"full":{"url":"/assets/fallback/photo_full_default.png"}},"file_full_width":null},"events":[],"entries":[],"links":[],"documents":[],"alerts":[],"descendants":[69344,69343],"photos":[],"place_id":94974,"place_name":"Szczecin","commune_name":"Szczecin","district_name":"Szczecin","voivodeship_name":"zachodniopomorskie"}],"clusters":[{"type":"voivodeship","id":"16","facet_count":190,"latitude":53.4657891,"longitude":15.1822581,"bounding_box":[{"lat":54.365109294334694,"lng":13.671564031283872},{"lat":52.56646890566531,"lng":16.69295216871613}]}]}